Data
F1	5.04710655024254
F2	3.42521481160984
F3	3.59595534676865
F4	5.30018377434593
F5	2.50467148719749
F6	7.16937659722555
F7	6.04575879721127
F8	4.56764346382212
F9	4.14854968092769
F10	5.05962707241033
F11	4.81330736172414
F12	7.89538905419239
F13	5.56491731922043
F14	3.22196292271788
F15	6.26769025606599
F16	4.51650894794086
F17	4.96373774534208
F18	4.84327109028909
F19	6.33735763490031
F20	6.68686225807015
F21	5.0980194298308
F22	3.7962776420641
F23	5.92673899912121
F24	3.95628097554021
F25	1.94858706516799
F26	4.81897237720469
F27	7.01573890925024
F28	4.63384860192103
F29	2.88510644435687
F30	0.477394033155769
F31	0.586847558840099
F32	4.94041043515646
F33	3.56608569252821
F34	2.80645499399273
F35	7.81249225108119
F36	6.15558154170583
F37	5.81241014949904
F38	10.8555166982961
F39	3.03990717739167
F40	4.50989021520828
F41	5.3117095420993
F42	4.65792076601531
F43	5.10319349766134
F44	3.32437070514007
F45	3.39123765965228
F46	3.67014770018896
F47	7.30445099949167
F48	6.72922806555809
F49	4.14802106954172
F50	4.57038423463363
F51	3.74857186779555
F52	8.05295909637706
F53	9.68862524804457
F54	3.05352565441279
F55	6.64290605925381
F56	8.1199565706908
F57	3.13198750097577
F58	3.18032970315743
F59	5.94118998574734
F60	2.66812394022249
F61	5.97708434638955
F62	3.64951653814991
F63	4.21738847671251
F64	2.31723639676499
F65	7.83053729830632
F66	5.66612798354998
F67	6.9206732008481
F68	6.07551221434149
F69	3.37102230680206
F70	5.09808802855572
F71	3.21189607036936
F72	3.17499311315163
F73	4.76546441022021
F74	1.94768910195376
F75	7.29490536154679
F76	7.8933060955456
F77	3.92419110054434
F78	3.40594189911091
F79	4.23694603722061
F80	2.57870302973448
F81	6.406162536554
F82	6.48908202666013
F83	2.08396885929297
F84	5.09686487190045
F85	7.34323857907964
F86	3.00254423844096
F87	8.60802665934781
F88	3.82060023084382
F89	2.65669408549719
F90	3.50741191774462
F91	6.71429094752595
F92	2.71637744254849
F93	2.71160180188459
F94	8.0054949032318
F95	3.93302857101951
F96	4.1446107939005
F97	5.36628509100239
F98	5.39133624609937
F99	7.17426461540988
F100	5.97237282644993
